…
If we do this for a somewhat realistic scenario, it would look like this

``` r
values = runif(90)
proportion_of_bases = values/sum(values)
barcodes =1:90
volume_of_each_barcode_added = 1.25

d = adjust_nanopore_barcodes(barcodes,proportion_of_bases,volume_of_each_barcode_added = 1.25,same_total_volume = TRUE)

d 
#> # A tibble: 90 × 5
#>    barcodes proportion_of_bases expected_proportion adjustment
#>       <int>               <dbl>               <dbl>      <dbl>
#>  1        1             0.0113               0.0111      0.980
#>  2        2             0.00443              0.0111      2.51 
#>  3        3             0.0143               0.0111      0.776
#>  4        4             0.0201               0.0111      0.552
#>  5        5             0.0115               0.0111      0.965
#>  6        6             0.0109               0.0111      1.02 
#>  7        7             0.00448              0.0111      2.48 
#>  8        8             0.0141               0.0111      0.789
#>  9        9             0.0154               0.0111      0.719
#> 10       10             0.00961              0.0111      1.16 
#> # ℹ 80 more rows
#> # ℹ 1 more variable: adjusted_volume_uL <dbl>
```
…
